{
  "formatVersion": 1,
  "database": {
    "version": 2,
    "identityHash": "f5ee4cfa66ae178dd439b4a0c1e8b39a",
    "entities": [
      {
        "tableName": "users",
        "createSql": "CREATE TABLE IF NOT EXISTS `${TABLE_NAME}` (`active` INTEGER NOT NULL, `email` TEXT NOT NULL, `name` TEXT, `avatar_thumb` TEXT, `avatar` TEXT, `id` INTEGER PRIMARY KEY AUTOINCREMENT NOT NULL)",
        "fields": [
          {
            "fieldPath": "active",
            "columnName": "active",
            "affinity": "INTEGER",
            "notNull": true
          },
          {
            "fieldPath": "email",
            "columnName": "email",
            "affinity": "TEXT",
            "notNull": true
          },
          {
            "fieldPath": "name",
            "columnName": "name",
            "affinity": "TEXT",
            "notNull": false
          },
          {
            "fieldPath": "avatar_thumb",
            "columnName": "avatar_thumb",
            "affinity": "TEXT",
            "notNull": false
          },
          {
            "fieldPath": "avatar",
            "columnName": "avatar",
            "affinity": "TEXT",
            "notNull": false
          },
          {
            "fieldPath": "id",
            "columnName": "id",
            "affinity": "INTEGER",
            "notNull": true
          }
        ],
        "primaryKey": {
          "columnNames": [
            "id"
          ],
          "autoGenerate": true
        },
        "indices": [],
        "foreignKeys": []
      },
      {
        "tableName": "items",
        "createSql": "CREATE TABLE IF NOT EXISTS `${TABLE_NAME}` (`user_id` INTEGER NOT NULL, `brand` TEXT, `category` TEXT, `color1` TEXT, `color1_desc` TEXT, `color2` TEXT, `color2_desc` TEXT, `therm_id` INTEGER NOT NULL, `status` TEXT, `path` TEXT NOT NULL, `path_thumb` TEXT NOT NULL, `id` INTEGER PRIMARY KEY AUTOINCREMENT NOT NULL)",
        "fields": [
          {
            "fieldPath": "user_id",
            "columnName": "user_id",
            "affinity": "INTEGER",
            "notNull": true
          },
          {
            "fieldPath": "brand",
            "columnName": "brand",
            "affinity": "TEXT",
            "notNull": false
          },
          {
            "fieldPath": "category",
            "columnName": "category",
            "affinity": "TEXT",
            "notNull": false
          },
          {
            "fieldPath": "color1",
            "columnName": "color1",
            "affinity": "TEXT",
            "notNull": false
          },
          {
            "fieldPath": "color1_desc",
            "columnName": "color1_desc",
            "affinity": "TEXT",
            "notNull": false
          },
          {
            "fieldPath": "color2",
            "columnName": "color2",
            "affinity": "TEXT",
            "notNull": false
          },
          {
            "fieldPath": "color2_desc",
            "columnName": "color2_desc",
            "affinity": "TEXT",
            "notNull": false
          },
          {
            "fieldPath": "therm_id",
            "columnName": "therm_id",
            "affinity": "INTEGER",
            "notNull": true
          },
          {
            "fieldPath": "status",
            "columnName": "status",
            "affinity": "TEXT",
            "notNull": false
          },
          {
            "fieldPath": "path",
            "columnName": "path",
            "affinity": "TEXT",
            "notNull": true
          },
          {
            "fieldPath": "path_thumb",
            "columnName": "path_thumb",
            "affinity": "TEXT",
            "notNull": true
          },
          {
            "fieldPath": "id",
            "columnName": "id",
            "affinity": "INTEGER",
            "notNull": true
          }
        ],
        "primaryKey": {
          "columnNames": [
            "id"
          ],
          "autoGenerate": true
        },
        "indices": [],
        "foreignKeys": []
      }
    ],
    "views": [],
    "setupQueries": [
      "CREATE TABLE IF NOT EXISTS room_master_table (id INTEGER PRIMARY KEY,identity_hash TEXT)",
      "INSERT OR REPLACE INTO room_master_table (id,identity_hash) VALUES(42, 'f5ee4cfa66ae178dd439b4a0c1e8b39a')"
    ]
  }
}